<robot xmlns:xacro="http://ros.org/wiki/xacro" name="valkyrie">

    <gazebo>
      <plugin filename="libval_gazebo.so" name="SharedMemorySimInterfacePlugin">
          <robotNamespace>/val</robotNamespace>
      </plugin>
    </gazebo>

    <xacro:property name="mesh_root" value="package://val_description/model/meshes"/>
    <xacro:include filename="$(find val_description)/common/xacro/api/valkyrie_sim_api.xacro"/>
    <xacro:include filename="$(find val_description)/model/robots/common/xacro/generic_models.xacro" />
    <xacro:include filename="$(find val_description)/model/robots/common/xacro/common_bodies.xacro" />
    <xacro:include filename="$(find val_description)/model/urdf/multisense_sl.urdf" />
    <xacro:include filename="$(find val_description)/common/xacro/serial_numbers/valkyrie_A_serials.xacro"/>
    <xacro:include filename="$(find val_description)/common/xacro/dev_ports/valkyrie_gazebo_ports.xacro"/>
    <xacro:include filename="$(find val_description)/model/robots/common/xacro/valkyrie_base_sim.xacro"/>
    <xacro:include filename="$(find val_description)/model/robots/common/xacro/gazebo_harness.xacro"/>
    <xacro:include filename="$(find val_description)/model/robots/common/xacro/gazebo_self_collide.xacro"/>

    <xacro:add_self_collide />
    <xacro:add_sim_harness harnessed_link="${TorsoRollLinkName}" />    

</robot>
